<svg width="41" height="36" viewBox="0 0 41 36" fill="none" xmlns="http://www.w3.org/2000/svg">
<path d="M27.3333 33.4758L13.6667 29.6156V2.52422L27.3333 6.38438V33.4758ZM29.6111 33.3914V6.21563L38.6582 2.63672C39.7828 2.19375 41 3.00938 41 4.20469V27.7453C41 28.4344 40.5729 29.0531 39.9252 29.3133L29.6111 33.3844V33.3914ZM1.07483 6.68672L11.3889 2.61563V29.7844L2.34184 33.3633C1.21719 33.8063 0 32.9906 0 31.7953V8.25469C0 7.56563 0.427083 6.94688 1.07483 6.68672Z" fill="#2F80ED"/>
</svg>
