<svg width="42" height="42" viewBox="0 0 42 42" fill="none" xmlns="http://www.w3.org/2000/svg">
<path d="M35.5179 13.0462L26.3304 3.85875C26.1476 3.67569 25.9304 3.53046 25.6914 3.43136C25.4524 3.33227 25.1962 3.28126 24.9375 3.28125H9.1875C8.31726 3.28125 7.48266 3.62695 6.86731 4.24231C6.25195 4.85766 5.90625 5.69226 5.90625 6.5625V35.4375C5.90625 36.3077 6.25195 37.1423 6.86731 37.7577C7.48266 38.373 8.31726 38.7188 9.1875 38.7188H32.8125C33.6827 38.7188 34.5173 38.373 35.1327 37.7577C35.748 37.1423 36.0938 36.3077 36.0938 35.4375V14.4375C36.0937 13.9158 35.8866 13.4154 35.5179 13.0462ZM26.25 9.35156L30.0234 13.125H26.25V9.35156ZM9.84375 34.7812V7.21875H22.3125V15.0938C22.3125 15.6159 22.5199 16.1167 22.8891 16.4859C23.2583 16.8551 23.7591 17.0625 24.2812 17.0625H32.1562V34.7812H9.84375Z" fill="white"/>
</svg>
